[
    {
        "id": "masSobreTortugas",
        "title": "Más sobre las tortugas",
        "url": "https://sway.office.com/s/oCkLl8YJGJB2ZBDT/embed" 
    },
    {
        "id": "diferenciasEspecies",
        "title": "Diferencias entre especies",
        "url": "https://sway.office.com/s/h86OSyiAoiNONDTJ/embed" 
    },
    {
        "id": "conservacionTortugas",
        "title": "Conservación de las tortugas",
        "url": "https://sway.office.com/s/ihX9v9UVHDAEFhVj/embed" 
    },
    {
        "id": "cuotaConservacion",
        "title": "Cuotas de conservación",
        "url": "https://sway.office.com/s/VxZ1PO2eNALJlhgW/embed" 
    },
    {
        "id": "amenazas",
        "title": "Amenazas",
        "url": "https://sway.office.com/s/gFRXAi7pFa59JEmd/embed" 
    },
    {
        "id": "comoAyudarFrame",
        "title": "¿Cómo ayudar?",
        "url": "https://sway.office.com/s/VbiLGEvjuPgvFIn7/embed" 
    }
]